{
	"$id" : "https://gitlab.com/php-extended/php-api-fr-gouv-api-geo-interface/json-schema.json",
	"$schema" : "https://json-schema.org/draft/2020-12/schema",
	"type" : "null",
	"$defs" : {
		"ApiFrGouvApiGeoCommune" : {
			"type" : "object",
			"description" : "This represents a commune from the api.",
			"properties" : {
				"code" : {
					"type" : "string",
					"description" : "The code of the commune."
				},
				"codeDepartement" : {
					"type" : "string",
					"description" : "The code departement of the commune."
				},
				"codeRegion" : {
					"type" : "string",
					"description" : "The code region of the commune."
				},
				"nom" : {
					"type" : "string",
					"description" : "The nom of the commune."
				},
				"siren" : {
					"type" : "string",
					"description" : "The siren of the commune, if any."
				},
				"codeEpci" : {
					"type" : "string",
					"description" : "The code epci of the commune."
				},
				"codesPostaux" : {
					"type" : "array",
					"description" : "The codes postaux for this commune.",
					"items" : {
						"type" : "string"
					}
				},
				"population" : {
					"type" : "integer",
					"description" : "The population of this commune."
				},
				"geometry" : {
					"$ref" : "https://gitlab.com/php-extended/php-geojson-interface/json-schema.json#/$defs/GeoJsonGeometry"
				}
			},
			"required" : ["code", "codeDepartement", "codeRegion", "nom", "codesPostaux"]
		},
		"ApiFrGouvApiGeoDepartement" : {
			"type" : "object",
			"description" : "This represents a departement from the api.",
			"properties" : {
				"code" : {
					"type" : "string",
					"description" : "The code of the departement."
				},
				"codeRegion" : {
					"type" : "string",
					"description" : "The code of the parent region."
				},
				"nom" : {
					"type" : "string",
					"description" : "The nom of the departement."
				}
			},
			"required" : ["code", "codeRegion", "nom"]
		},
		"ApiFrGouvApiGeoRegion" : {
			"type" : "object",
			"description" : "This represents a region from the api.",
			"properties" : {
				"code" : {
					"type" : "string",
					"description" : "The code of the region."
				},
				"nom" : {
					"type" : "string",
					"description" : "The nom of the region."
				}
			},
			"required" : ["code", "nom"]
		}
	}
}